# Blender MTL File: 'floor_4x4.obj'
# Material Count: 1

newmtl None
Ns 0
Ka 0.000000 0.000000 0.000000
Kd 0.8 0.8 0.8
Ks 0.8 0.8 0.8
d 1
illum 2
map_Kd C:\Program Files (x86)\Steam\steamapps\common\PAYDAY 2\assets\extract\units\pd2_dlc_red\architecture\textures\red_int_bathroomtiles_df.texture.dds
